<?xml version="1.0" encoding="utf-8"?>
<svg viewBox="0 0 100 100" xmlns="http://www.w3.org/2000/svg">
  <path style="stroke: rgb(0, 0, 0); fill: transparent; stroke-width: 7; stroke-linecap: round; stroke-linejoin: round;" d="M 75 80 L 50 20 L 25 80 Z"/>
</svg>